dump.vcd
$date
	Mon Dec 21 21:01:33 2020
$end
$version
	Icarus Verilog
$end
$timescale
	1s
$end
$scope module testbench $end
$var wire 16 ! y [15:0] $end
$var wire 1 " valid $end
$var wire 1 # ready $end
$var reg 16 $ a [15:0] $end
$var reg 16 % b [15:0] $end
$var reg 16 & c [15:0] $end
$var reg 1 ' clock $end
$var reg 32 ( counter [31:0] $end
$var reg 1 ) enable $end
$var reg 16 * expected [15:0] $end
$var reg 1 + reset $end
$var reg 8 , x [7:0] $end
$var integer 32 - file [31:0] $end
$var integer 32 . r [31:0] $end
$var integer 32 / test [31:0] $end
$scope module yankeeSolver1 $end
$var wire 1 0 LH $end
$var wire 16 1 a [15:0] $end
$var wire 16 2 b [15:0] $end
$var wire 16 3 c [15:0] $end
$var wire 1 ' clock $end
$var wire 1 + reset $end
$var wire 1 ) start $end
$var wire 8 4 x [7:0] $end
$var wire 1 " valid $end
$var wire 16 5 result [15:0] $end
$var wire 1 # ready $end
$var wire 2 6 m2 [1:0] $end
$var wire 2 7 m1 [1:0] $end
$var wire 2 8 m0 [1:0] $end
$var wire 1 9 h $end
$var wire 1 : LX $end
$var wire 1 ; LS $end
$scope module bloco_controle1 $end
$var wire 1 0 LH $end
$var wire 1 ; LS $end
$var wire 1 : LX $end
$var wire 1 ' clock $end
$var wire 1 9 h $end
$var wire 1 # ready $end
$var wire 1 + reset $end
$var wire 1 ) start $end
$var wire 1 " valid $end
$var wire 2 < m2 [1:0] $end
$var wire 2 = m1 [1:0] $end
$var wire 2 > m0 [1:0] $end
$var reg 4 ? state [3:0] $end
$upscope $end
$scope module bloco_operativo1 $end
$var wire 1 0 LH $end
$var wire 1 ; LS $end
$var wire 1 : LX $end
$var wire 16 @ a [15:0] $end
$var wire 16 A b [15:0] $end
$var wire 16 B c [15:0] $end
$var wire 1 ' clock $end
$var wire 1 9 h $end
$var wire 2 C m0 [1:0] $end
$var wire 2 D m1 [1:0] $end
$var wire 2 E m2 [1:0] $end
$var wire 16 F result [15:0] $end
$var wire 8 G x [7:0] $end
$var wire 16 H saida_ula [15:0] $end
$var wire 16 I saida_m2 [15:0] $end
$var wire 16 J saida_m1 [15:0] $end
$var wire 16 K saida_m0 [15:0] $end
$var reg 16 L Reg_H [15:0] $end
$var reg 16 M Reg_S [15:0] $end
$var reg 16 N Reg_X [15:0] $end
$scope module multiplexador0 $end
$var wire 2 O seletor [1:0] $end
$var wire 16 P um_um [15:0] $end
$var wire 16 Q um_zero [15:0] $end
$var wire 16 R zero_um [15:0] $end
$var wire 16 S zero_zero [15:0] $end
$var wire 16 T saida [15:0] $end
$upscope $end
$scope module multiplexador1 $end
$var wire 2 U seletor [1:0] $end
$var wire 16 V um_um [15:0] $end
$var wire 16 W um_zero [15:0] $end
$var wire 16 X zero_um [15:0] $end
$var wire 16 Y zero_zero [15:0] $end
$var wire 16 Z saida [15:0] $end
$upscope $end
$scope module multiplexador2 $end
$var wire 2 [ seletor [1:0] $end
$var wire 16 \ um_um [15:0] $end
$var wire 16 ] um_zero [15:0] $end
$var wire 16 ^ zero_um [15:0] $end
$var wire 16 _ zero_zero [15:0] $end
$var wire 16 ` saida [15:0] $end
$upscope $end
$scope module ula1 $end
$var wire 16 a a [15:0] $end
$var wire 16 b b [15:0] $end
$var wire 1 ' clock $end
$var wire 1 9 h $end
$var wire 16 c o [15:0] $end
$upscope $end
$upscope $end
$upscope $end
$upscope $end
$enddefinitions $end
#0
$dumpvars
bx c
bx b
bx a
bx `
bx _
bx ^
bx ]
bx \
b0 [
bx Z
bx Y
bx X
bx W
bx V
b1 U
bx T
bx S
bx R
bx Q
bx P
b10 O
bx N
bx M
bx L
bx K
bx J
bx I
bx H
bx G
bx F
b0 E
b1 D
b10 C
bx B
bx A
bx @
b0 ?
b10 >
b1 =
b0 <
1;
1:
19
b10 8
b1 7
b0 6
bx 5
bx 4
bx 3
bx 2
bx 1
10
bx /
bx .
bx -
bx ,
1+
bx *
0)
b0 (
0'
bx &
bx %
bx $
1#
0"
bx !
$end
#1
1'
#2
0'
#3
1'
#4
0'
#5
1'
#6
0'
#7
1'
#8
0'
#9
1'
#10
0'
0+
b10000000000000000000000000000100 /
b10000000000000000000000000000011 -
#11
1'
#12
0'
#13
1'
#14
0'
#15
1'
#16
0'
#17
1'
#18
0'
#19
1'
#20
b1111111110011011 K
b1111111110011011 T
b1111111110011011 Y
b1111111110011011 ^
b100 .
b1111111110010111 &
b1111111110010111 3
b1111111110010111 B
b1111111110010111 P
b1111111110011011 %
b1111111110011011 2
b1111111110011011 A
b1111111110011011 Q
b1111111110011100 $
b1111111110011100 1
b1111111110011100 @
b1111111110011100 R
b1111111110011100 S
b10011100 ,
b10011100 4
b10011100 G
0'
1)
#21
b1111111110011100 N
b1111111110011100 X
b1111111110011100 _
b1111111110011100 K
b1111111110011100 T
b1111111110011100 Y
b1111111110011100 ^
b0 8
b0 >
b0 C
b0 O
bx I
bx `
bx a
0#
b11 6
b11 <
b11 E
b11 [
b11 7
b11 =
b11 D
b11 U
b1 ?
1'
#22
0'
0)
#23
b1111111110010111 K
b1111111110010111 T
b1111111110010111 Y
b1111111110010111 ^
b10011100010000 H
b10011100010000 c
b1111111110011100 I
b1111111110011100 `
b1111111110011100 a
0:
b1111111110011100 J
b1111111110011100 Z
b1111111110011100 b
0#
b0 6
b0 <
b0 E
b0 [
b11 8
b11 >
b11 C
b11 O
b1 7
b1 =
b1 D
b1 U
b10 ?
1'
#24
0'
#25
b10011100010000 L
b10011100010000 V
b10011100010000 \
b10011100010000 !
b10011100010000 5
b10011100010000 F
b10011100010000 M
b10011100010000 W
b10011100010000 ]
b1111111110011100 K
b1111111110011100 T
b1111111110011100 Y
b1111111110011100 ^
b1011110111000000 H
b1011110111000000 c
b1 8
b1 >
b1 C
b1 O
b10011100010000 J
b10011100010000 Z
b10011100010000 b
b1111111110011100 I
b1111111110011100 `
b1111111110011100 a
b1 6
b1 <
b1 E
b1 [
b11 7
b11 =
b11 D
b11 U
b11 ?
1'
#26
0'
#27
b1011110111000000 L
b1011110111000000 V
b1011110111000000 \
b1011110111000000 !
b1011110111000000 5
b1011110111000000 F
b1011110111000000 M
b1011110111000000 W
b1011110111000000 ]
b1111111110011011 I
b1111111110011011 `
b1111111110011011 a
0;
b1111111110011011 K
b1111111110011011 T
b1111111110011011 Y
b1111111110011011 ^
b10011101110100 H
b10011101110100 c
b1111111110011100 J
b1111111110011100 Z
b1111111110011100 b
b10 8
b10 >
b10 C
b10 O
b1 7
b1 =
b1 D
b1 U
b100 ?
1'
#28
0'
#29
b10011101110100 L
b10011101110100 V
b10011101110100 \
b10011101110100 I
b10011101110100 `
b10011101110100 a
09
1;
b1111111110011100 K
b1111111110011100 T
b1111111110011100 Y
b1111111110011100 ^
b1110010100110100 H
b1110010100110100 c
b0 8
b0 >
b0 C
b0 O
b1011110111000000 J
b1011110111000000 Z
b1011110111000000 b
b11 6
b11 <
b11 E
b11 [
b10 7
b10 =
b10 D
b10 U
b101 ?
1'
#30
0'
#31
b1110010100110100 I
b1110010100110100 `
b1110010100110100 a
b1110010100110100 L
b1110010100110100 V
b1110010100110100 \
b1110010100110100 !
b1110010100110100 5
b1110010100110100 F
b1110010100110100 M
b1110010100110100 W
b1110010100110100 ]
b1111111110010111 K
b1111111110010111 T
b1111111110010111 Y
b1111111110010111 ^
b1110010011001011 H
b1110010011001011 c
b1111111110010111 J
b1111111110010111 Z
b1111111110010111 b
b11 8
b11 >
b11 C
b11 O
b0 7
b0 =
b0 D
b0 U
b110 ?
1'
#32
0'
#33
b1110010011001011 I
b1110010011001011 `
b1110010011001011 a
b1110010011001011 L
b1110010011001011 V
b1110010011001011 \
b1110010011001011 !
b1110010011001011 5
b1110010011001011 F
b1110010011001011 M
b1110010011001011 W
b1110010011001011 ]
0;
b1100100110010110 H
b1100100110010110 c
b1110010011001011 J
b1110010011001011 Z
b1110010011001011 b
b10 7
b10 =
b10 D
b10 U
b111 ?
1'
#34
0'
#35
b1100100110010110 L
b1100100110010110 V
b1100100110010110 \
1;
b1111111110011011 K
b1111111110011011 T
b1111111110011011 Y
b1111111110011011 ^
b1111111110011100 I
b1111111110011100 `
b1111111110011100 a
1#
b1 (
b1 .
b1110010011001011 *
19
1:
b10011100010000 H
b10011100010000 c
1"
b1111111110011100 J
b1111111110011100 Z
b1111111110011100 b
b0 6
b0 <
b0 E
b0 [
b10 8
b10 >
b10 C
b10 O
b1 7
b1 =
b1 D
b1 U
b1000 ?
1'
#36
0'
#37
b10011100010000 L
b10011100010000 V
b10011100010000 \
b10011100010000 !
b10011100010000 5
b10011100010000 F
b10011100010000 M
b10011100010000 W
b10011100010000 ]
b1111111110011100 K
b1111111110011100 T
b1111111110011100 Y
b1111111110011100 ^
b1110000100000000 H
b1110000100000000 c
0"
b0 8
b0 >
b0 C
b0 O
b10011100010000 J
b10011100010000 Z
b10011100010000 b
b10011100010000 I
b10011100010000 `
b10011100010000 a
0#
b11 6
b11 <
b11 E
b11 [
b11 7
b11 =
b11 D
b11 U
b1001 ?
1'
#38
0'
#39
b1110000100000000 L
b1110000100000000 V
b1110000100000000 \
b1110000100000000 !
b1110000100000000 5
b1110000100000000 F
b1110000100000000 M
b1110000100000000 W
b1110000100000000 ]
b1111111110011011 K
b1111111110011011 T
b1111111110011011 Y
b1111111110011011 ^
b10011100010000 H
b10011100010000 c
b1111111110011100 I
b1111111110011100 `
b1111111110011100 a
b10 8
b10 >
b10 C
b10 O
b1111111110011100 J
b1111111110011100 Z
b1111111110011100 b
1#
b0 6
b0 <
b0 E
b0 [
b1 7
b1 =
b1 D
b1 U
b0 ?
1'
#40
0'
#41
b10011100010000 L
b10011100010000 V
b10011100010000 \
b10011100010000 !
b10011100010000 5
b10011100010000 F
b10011100010000 M
b10011100010000 W
b10011100010000 ]
1'
#42
0'
#43
1'
#44
0'
#45
1'
#46
b100 .
b1111111110011100 &
b1111111110011100 3
b1111111110011100 B
b1111111110011100 P
0'
1)
#47
b1111111110011100 K
b1111111110011100 T
b1111111110011100 Y
b1111111110011100 ^
b1110000100000000 H
b1110000100000000 c
b0 8
b0 >
b0 C
b0 O
b10011100010000 J
b10011100010000 Z
b10011100010000 b
b10011100010000 I
b10011100010000 `
b10011100010000 a
0#
b11 6
b11 <
b11 E
b11 [
b11 7
b11 =
b11 D
b11 U
b1 ?
1'
#48
0'
0)
#49
b1110000100000000 L
b1110000100000000 V
b1110000100000000 \
b1110000100000000 !
b1110000100000000 5
b1110000100000000 F
b1110000100000000 M
b1110000100000000 W
b1110000100000000 ]
b10011100010000 H
b10011100010000 c
b1111111110011100 I
b1111111110011100 `
b1111111110011100 a
0:
b1111111110011100 J
b1111111110011100 Z
b1111111110011100 b
0#
b0 6
b0 <
b0 E
b0 [
b11 8
b11 >
b11 C
b11 O
b1 7
b1 =
b1 D
b1 U
b10 ?
1'
#50
0'
#51
b10011100010000 L
b10011100010000 V
b10011100010000 \
b10011100010000 !
b10011100010000 5
b10011100010000 F
b10011100010000 M
b10011100010000 W
b10011100010000 ]
b1011110111000000 H
b1011110111000000 c
b1 8
b1 >
b1 C
b1 O
b10011100010000 J
b10011100010000 Z
b10011100010000 b
b1 6
b1 <
b1 E
b1 [
b11 7
b11 =
b11 D
b11 U
b11 ?
1'
#52
0'
#53
b1011110111000000 L
b1011110111000000 V
b1011110111000000 \
b1011110111000000 !
b1011110111000000 5
b1011110111000000 F
b1011110111000000 M
b1011110111000000 W
b1011110111000000 ]
b1111111110011011 I
b1111111110011011 `
b1111111110011011 a
b1111111110011011 K
b1111111110011011 T
b1111111110011011 Y
b1111111110011011 ^
0;
b10011101110100 H
b10011101110100 c
b1111111110011100 J
b1111111110011100 Z
b1111111110011100 b
b10 8
b10 >
b10 C
b10 O
b1 7
b1 =
b1 D
b1 U
b100 ?
1'
#54
0'
#55
b10011101110100 L
b10011101110100 V
b10011101110100 \
b10011101110100 I
b10011101110100 `
b10011101110100 a
09
1;
b1111111110011100 K
b1111111110011100 T
b1111111110011100 Y
b1111111110011100 ^
b1110010100110100 H
b1110010100110100 c
b0 8
b0 >
b0 C
b0 O
b1011110111000000 J
b1011110111000000 Z
b1011110111000000 b
b11 6
b11 <
b11 E
b11 [
b10 7
b10 =
b10 D
b10 U
b101 ?
1'
#56
0'
#57
b1110010100110100 I
b1110010100110100 `
b1110010100110100 a
b1110010100110100 L
b1110010100110100 V
b1110010100110100 \
b1110010100110100 !
b1110010100110100 5
b1110010100110100 F
b1110010100110100 M
b1110010100110100 W
b1110010100110100 ]
b1110010011010000 H
b1110010011010000 c
b1111111110011100 J
b1111111110011100 Z
b1111111110011100 b
b11 8
b11 >
b11 C
b11 O
b0 7
b0 =
b0 D
b0 U
b110 ?
1'
#58
0'
#59
b1110010011010000 I
b1110010011010000 `
b1110010011010000 a
b1110010011010000 L
b1110010011010000 V
b1110010011010000 \
b1110010011010000 !
b1110010011010000 5
b1110010011010000 F
b1110010011010000 M
b1110010011010000 W
b1110010011010000 ]
0;
b1100100110100000 H
b1100100110100000 c
b1110010011010000 J
b1110010011010000 Z
b1110010011010000 b
b10 7
b10 =
b10 D
b10 U
b111 ?
1'
#60
0'
#61
b1100100110100000 L
b1100100110100000 V
b1100100110100000 \
1;
b1111111110011011 K
b1111111110011011 T
b1111111110011011 Y
b1111111110011011 ^
b1111111110011100 I
b1111111110011100 `
b1111111110011100 a
1#
b10 (
b1 .
b1110010011010000 *
19
1:
b10011100010000 H
b10011100010000 c
1"
b1111111110011100 J
b1111111110011100 Z
b1111111110011100 b
b0 6
b0 <
b0 E
b0 [
b10 8
b10 >
b10 C
b10 O
b1 7
b1 =
b1 D
b1 U
b1000 ?
1'
#62
0'
#63
b10011100010000 L
b10011100010000 V
b10011100010000 \
b10011100010000 !
b10011100010000 5
b10011100010000 F
b10011100010000 M
b10011100010000 W
b10011100010000 ]
b1111111110011100 K
b1111111110011100 T
b1111111110011100 Y
b1111111110011100 ^
b1110000100000000 H
b1110000100000000 c
0"
b0 8
b0 >
b0 C
b0 O
b10011100010000 J
b10011100010000 Z
b10011100010000 b
b10011100010000 I
b10011100010000 `
b10011100010000 a
0#
b11 6
b11 <
b11 E
b11 [
b11 7
b11 =
b11 D
b11 U
b1001 ?
1'
#64
0'
#65
b1110000100000000 L
b1110000100000000 V
b1110000100000000 \
b1110000100000000 !
b1110000100000000 5
b1110000100000000 F
b1110000100000000 M
b1110000100000000 W
b1110000100000000 ]
b1111111110011011 K
b1111111110011011 T
b1111111110011011 Y
b1111111110011011 ^
b10011100010000 H
b10011100010000 c
b1111111110011100 I
b1111111110011100 `
b1111111110011100 a
b10 8
b10 >
b10 C
b10 O
b1111111110011100 J
b1111111110011100 Z
b1111111110011100 b
1#
b0 6
b0 <
b0 E
b0 [
b1 7
b1 =
b1 D
b1 U
b0 ?
1'
#66
0'
#67
b10011100010000 L
b10011100010000 V
b10011100010000 \
b10011100010000 !
b10011100010000 5
b10011100010000 F
b10011100010000 M
b10011100010000 W
b10011100010000 ]
1'
#68
0'
#69
1'
#70
0'
#71
1'
#72
b100 .
b1111111110100001 &
b1111111110100001 3
b1111111110100001 B
b1111111110100001 P
0'
1)
#73
b1111111110011100 K
b1111111110011100 T
b1111111110011100 Y
b1111111110011100 ^
b1110000100000000 H
b1110000100000000 c
b0 8
b0 >
b0 C
b0 O
b10011100010000 J
b10011100010000 Z
b10011100010000 b
b10011100010000 I
b10011100010000 `
b10011100010000 a
0#
b11 6
b11 <
b11 E
b11 [
b11 7
b11 =
b11 D
b11 U
b1 ?
1'
#74
0'
0)
#75
b1110000100000000 L
b1110000100000000 V
b1110000100000000 \
b1110000100000000 !
b1110000100000000 5
b1110000100000000 F
b1110000100000000 M
b1110000100000000 W
b1110000100000000 ]
b1111111110100001 K
b1111111110100001 T
b1111111110100001 Y
b1111111110100001 ^
b10011100010000 H
b10011100010000 c
b1111111110011100 I
b1111111110011100 `
b1111111110011100 a
0:
b1111111110011100 J
b1111111110011100 Z
b1111111110011100 b
0#
b0 6
b0 <
b0 E
b0 [
b11 8
b11 >
b11 C
b11 O
b1 7
b1 =
b1 D
b1 U
b10 ?
1'
#76
0'
#77
b10011100010000 L
b10011100010000 V
b10011100010000 \
b10011100010000 !
b10011100010000 5
b10011100010000 F
b10011100010000 M
b10011100010000 W
b10011100010000 ]
b1111111110011100 K
b1111111110011100 T
b1111111110011100 Y
b1111111110011100 ^
b1011110111000000 H
b1011110111000000 c
b1 8
b1 >
b1 C
b1 O
b10011100010000 J
b10011100010000 Z
b10011100010000 b
b1111111110011100 I
b1111111110011100 `
b1111111110011100 a
b1 6
b1 <
b1 E
b1 [
b11 7
b11 =
b11 D
b11 U
b11 ?
1'
#78
0'
#79
b1011110111000000 L
b1011110111000000 V
b1011110111000000 \
b1011110111000000 !
b1011110111000000 5
b1011110111000000 F
b1011110111000000 M
b1011110111000000 W
b1011110111000000 ]
b1111111110011011 I
b1111111110011011 `
b1111111110011011 a
0;
b1111111110011011 K
b1111111110011011 T
b1111111110011011 Y
b1111111110011011 ^
b10011101110100 H
b10011101110100 c
b1111111110011100 J
b1111111110011100 Z
b1111111110011100 b
b10 8
b10 >
b10 C
b10 O
b1 7
b1 =
b1 D
b1 U
b100 ?
1'
#80
0'
#81
b10011101110100 L
b10011101110100 V
b10011101110100 \
b10011101110100 I
b10011101110100 `
b10011101110100 a
09
1;
b1111111110011100 K
b1111111110011100 T
b1111111110011100 Y
b1111111110011100 ^
b1110010100110100 H
b1110010100110100 c
b0 8
b0 >
b0 C
b0 O
b1011110111000000 J
b1011110111000000 Z
b1011110111000000 b
b11 6
b11 <
b11 E
b11 [
b10 7
b10 =
b10 D
b10 U
b101 ?
1'
#82
0'
#83
b1110010100110100 I
b1110010100110100 `
b1110010100110100 a
b1110010100110100 L
b1110010100110100 V
b1110010100110100 \
b1110010100110100 !
b1110010100110100 5
b1110010100110100 F
b1110010100110100 M
b1110010100110100 W
b1110010100110100 ]
b1111111110100001 K
b1111111110100001 T
b1111111110100001 Y
b1111111110100001 ^
b1110010011010101 H
b1110010011010101 c
b1111111110100001 J
b1111111110100001 Z
b1111111110100001 b
b11 8
b11 >
b11 C
b11 O
b0 7
b0 =
b0 D
b0 U
b110 ?
1'
#84
0'
#85
b1110010011010101 I
b1110010011010101 `
b1110010011010101 a
b1110010011010101 L
b1110010011010101 V
b1110010011010101 \
b1110010011010101 !
b1110010011010101 5
b1110010011010101 F
b1110010011010101 M
b1110010011010101 W
b1110010011010101 ]
0;
b1100100110101010 H
b1100100110101010 c
b1110010011010101 J
b1110010011010101 Z
b1110010011010101 b
b10 7
b10 =
b10 D
b10 U
b111 ?
1'
#86
0'
#87
b1100100110101010 L
b1100100110101010 V
b1100100110101010 \
1;
b1111111110011011 K
b1111111110011011 T
b1111111110011011 Y
b1111111110011011 ^
b1111111110011100 I
b1111111110011100 `
b1111111110011100 a
1#
b11 (
b1 .
b1110010011010101 *
19
1:
b10011100010000 H
b10011100010000 c
1"
b1111111110011100 J
b1111111110011100 Z
b1111111110011100 b
b0 6
b0 <
b0 E
b0 [
b10 8
b10 >
b10 C
b10 O
b1 7
b1 =
b1 D
b1 U
b1000 ?
1'
#88
0'
#89
b10011100010000 L
b10011100010000 V
b10011100010000 \
b10011100010000 !
b10011100010000 5
b10011100010000 F
b10011100010000 M
b10011100010000 W
b10011100010000 ]
b1111111110011100 K
b1111111110011100 T
b1111111110011100 Y
b1111111110011100 ^
b1110000100000000 H
b1110000100000000 c
0"
b0 8
b0 >
b0 C
b0 O
b10011100010000 J
b10011100010000 Z
b10011100010000 b
b10011100010000 I
b10011100010000 `
b10011100010000 a
0#
b11 6
b11 <
b11 E
b11 [
b11 7
b11 =
b11 D
b11 U
b1001 ?
1'
#90
0'
#91
b1110000100000000 L
b1110000100000000 V
b1110000100000000 \
b1110000100000000 !
b1110000100000000 5
b1110000100000000 F
b1110000100000000 M
b1110000100000000 W
b1110000100000000 ]
b1111111110011011 K
b1111111110011011 T
b1111111110011011 Y
b1111111110011011 ^
b10011100010000 H
b10011100010000 c
b1111111110011100 I
b1111111110011100 `
b1111111110011100 a
b10 8
b10 >
b10 C
b10 O
b1111111110011100 J
b1111111110011100 Z
b1111111110011100 b
1#
b0 6
b0 <
b0 E
b0 [
b1 7
b1 =
b1 D
b1 U
b0 ?
1'
#92
0'
#93
b10011100010000 L
b10011100010000 V
b10011100010000 \
b10011100010000 !
b10011100010000 5
b10011100010000 F
b10011100010000 M
b10011100010000 W
b10011100010000 ]
1'
#94
0'
#95
1'
#96
0'
#97
1'
#98
b100 .
b1111111110100110 &
b1111111110100110 3
b1111111110100110 B
b1111111110100110 P
0'
1)
#99
b1111111110011100 K
b1111111110011100 T
b1111111110011100 Y
b1111111110011100 ^
b1110000100000000 H
b1110000100000000 c
b0 8
b0 >
b0 C
b0 O
b10011100010000 J
b10011100010000 Z
b10011100010000 b
b10011100010000 I
b10011100010000 `
b10011100010000 a
0#
b11 6
b11 <
b11 E
b11 [
b11 7
b11 =
b11 D
b11 U
b1 ?
1'
#100
0'
0)
#101
b1110000100000000 L
b1110000100000000 V
b1110000100000000 \
b1110000100000000 !
b1110000100000000 5
b1110000100000000 F
b1110000100000000 M
b1110000100000000 W
b1110000100000000 ]
b1111111110100110 K
b1111111110100110 T
b1111111110100110 Y
b1111111110100110 ^
b10011100010000 H
b10011100010000 c
b1111111110011100 I
b1111111110011100 `
b1111111110011100 a
0:
b1111111110011100 J
b1111111110011100 Z
b1111111110011100 b
0#
b0 6
b0 <
b0 E
b0 [
b11 8
b11 >
b11 C
b11 O
b1 7
b1 =
b1 D
b1 U
b10 ?
1'
#102
0'
#103
b10011100010000 L
b10011100010000 V
b10011100010000 \
b10011100010000 !
b10011100010000 5
b10011100010000 F
b10011100010000 M
b10011100010000 W
b10011100010000 ]
b1111111110011100 K
b1111111110011100 T
b1111111110011100 Y
b1111111110011100 ^
b1011110111000000 H
b1011110111000000 c
b1 8
b1 >
b1 C
b1 O
b10011100010000 J
b10011100010000 Z
b10011100010000 b
b1111111110011100 I
b1111111110011100 `
b1111111110011100 a
b1 6
b1 <
b1 E
b1 [
b11 7
b11 =
b11 D
b11 U
b11 ?
1'
#104
0'
#105
b1011110111000000 L
b1011110111000000 V
b1011110111000000 \
b1011110111000000 !
b1011110111000000 5
b1011110111000000 F
b1011110111000000 M
b1011110111000000 W
b1011110111000000 ]
b1111111110011011 I
b1111111110011011 `
b1111111110011011 a
0;
b1111111110011011 K
b1111111110011011 T
b1111111110011011 Y
b1111111110011011 ^
b10011101110100 H
b10011101110100 c
b1111111110011100 J
b1111111110011100 Z
b1111111110011100 b
b10 8
b10 >
b10 C
b10 O
b1 7
b1 =
b1 D
b1 U
b100 ?
1'
#106
0'
#107
b10011101110100 L
b10011101110100 V
b10011101110100 \
b10011101110100 I
b10011101110100 `
b10011101110100 a
09
1;
b1111111110011100 K
b1111111110011100 T
b1111111110011100 Y
b1111111110011100 ^
b1110010100110100 H
b1110010100110100 c
b0 8
b0 >
b0 C
b0 O
b1011110111000000 J
b1011110111000000 Z
b1011110111000000 b
b11 6
b11 <
b11 E
b11 [
b10 7
b10 =
b10 D
b10 U
b101 ?
1'
#108
0'
#109
b1110010100110100 I
b1110010100110100 `
b1110010100110100 a
b1110010100110100 L
b1110010100110100 V
b1110010100110100 \
b1110010100110100 !
b1110010100110100 5
b1110010100110100 F
b1110010100110100 M
b1110010100110100 W
b1110010100110100 ]
b1111111110100110 K
b1111111110100110 T
b1111111110100110 Y
b1111111110100110 ^
b1110010011011010 H
b1110010011011010 c
b1111111110100110 J
b1111111110100110 Z
b1111111110100110 b
b11 8
b11 >
b11 C
b11 O
b0 7
b0 =
b0 D
b0 U
b110 ?
1'
#110
0'
#111
b1110010011011010 I
b1110010011011010 `
b1110010011011010 a
b1110010011011010 L
b1110010011011010 V
b1110010011011010 \
b1110010011011010 !
b1110010011011010 5
b1110010011011010 F
b1110010011011010 M
b1110010011011010 W
b1110010011011010 ]
0;
b1100100110110100 H
b1100100110110100 c
b1110010011011010 J
b1110010011011010 Z
b1110010011011010 b
b10 7
b10 =
b10 D
b10 U
b111 ?
1'
#112
0'
#113
b1100100110110100 L
b1100100110110100 V
b1100100110110100 \
1;
b1111111110011011 K
b1111111110011011 T
b1111111110011011 Y
b1111111110011011 ^
b1111111110011100 I
b1111111110011100 `
b1111111110011100 a
1#
b100 (
b1 .
b1110010011011010 *
19
1:
b10011100010000 H
b10011100010000 c
1"
b1111111110011100 J
b1111111110011100 Z
b1111111110011100 b
b0 6
b0 <
b0 E
b0 [
b10 8
b10 >
b10 C
b10 O
b1 7
b1 =
b1 D
b1 U
b1000 ?
1'
#114
0'
#115
b10011100010000 L
b10011100010000 V
b10011100010000 \
b10011100010000 !
b10011100010000 5
b10011100010000 F
b10011100010000 M
b10011100010000 W
b10011100010000 ]
b1111111110011100 K
b1111111110011100 T
b1111111110011100 Y
b1111111110011100 ^
b1110000100000000 H
b1110000100000000 c
0"
b0 8
b0 >
b0 C
b0 O
b10011100010000 J
b10011100010000 Z
b10011100010000 b
b10011100010000 I
b10011100010000 `
b10011100010000 a
0#
b11 6
b11 <
b11 E
b11 [
b11 7
b11 =
b11 D
b11 U
b1001 ?
1'
#116
0'
#117
b1110000100000000 L
b1110000100000000 V
b1110000100000000 \
b1110000100000000 !
b1110000100000000 5
b1110000100000000 F
b1110000100000000 M
b1110000100000000 W
b1110000100000000 ]
b1111111110011011 K
b1111111110011011 T
b1111111110011011 Y
b1111111110011011 ^
b10011100010000 H
b10011100010000 c
b1111111110011100 I
b1111111110011100 `
b1111111110011100 a
b10 8
b10 >
b10 C
b10 O
b1111111110011100 J
b1111111110011100 Z
b1111111110011100 b
1#
b0 6
b0 <
b0 E
b0 [
b1 7
b1 =
b1 D
b1 U
b0 ?
1'
#118
0'
#119
b10011100010000 L
b10011100010000 V
b10011100010000 \
b10011100010000 !
b10011100010000 5
b10011100010000 F
b10011100010000 M
b10011100010000 W
b10011100010000 ]
1'
#120
0'
#121
1'
#122
0'
#123
1'
#124
b100 .
b1111111110101011 &
b1111111110101011 3
b1111111110101011 B
b1111111110101011 P
0'
1)
#125
b1111111110011100 K
b1111111110011100 T
b1111111110011100 Y
b1111111110011100 ^
b1110000100000000 H
b1110000100000000 c
b0 8
b0 >
b0 C
b0 O
b10011100010000 J
b10011100010000 Z
b10011100010000 b
b10011100010000 I
b10011100010000 `
b10011100010000 a
0#
b11 6
b11 <
b11 E
b11 [
b11 7
b11 =
b11 D
b11 U
b1 ?
1'
#126
0'
0)
#127
b1110000100000000 L
b1110000100000000 V
b1110000100000000 \
b1110000100000000 !
b1110000100000000 5
b1110000100000000 F
b1110000100000000 M
b1110000100000000 W
b1110000100000000 ]
b1111111110101011 K
b1111111110101011 T
b1111111110101011 Y
b1111111110101011 ^
b10011100010000 H
b10011100010000 c
b1111111110011100 I
b1111111110011100 `
b1111111110011100 a
0:
b1111111110011100 J
b1111111110011100 Z
b1111111110011100 b
0#
b0 6
b0 <
b0 E
b0 [
b11 8
b11 >
b11 C
b11 O
b1 7
b1 =
b1 D
b1 U
b10 ?
1'
#128
0'
#129
b10011100010000 L
b10011100010000 V
b10011100010000 \
b10011100010000 !
b10011100010000 5
b10011100010000 F
b10011100010000 M
b10011100010000 W
b10011100010000 ]
b1111111110011100 K
b1111111110011100 T
b1111111110011100 Y
b1111111110011100 ^
b1011110111000000 H
b1011110111000000 c
b1 8
b1 >
b1 C
b1 O
b10011100010000 J
b10011100010000 Z
b10011100010000 b
b1111111110011100 I
b1111111110011100 `
b1111111110011100 a
b1 6
b1 <
b1 E
b1 [
b11 7
b11 =
b11 D
b11 U
b11 ?
1'
#130
0'
#131
b1011110111000000 L
b1011110111000000 V
b1011110111000000 \
b1011110111000000 !
b1011110111000000 5
b1011110111000000 F
b1011110111000000 M
b1011110111000000 W
b1011110111000000 ]
b1111111110011011 I
b1111111110011011 `
b1111111110011011 a
0;
b1111111110011011 K
b1111111110011011 T
b1111111110011011 Y
b1111111110011011 ^
b10011101110100 H
b10011101110100 c
b1111111110011100 J
b1111111110011100 Z
b1111111110011100 b
b10 8
b10 >
b10 C
b10 O
b1 7
b1 =
b1 D
b1 U
b100 ?
1'
#132
0'
#133
b10011101110100 L
b10011101110100 V
b10011101110100 \
b10011101110100 I
b10011101110100 `
b10011101110100 a
09
1;
b1111111110011100 K
b1111111110011100 T
b1111111110011100 Y
b1111111110011100 ^
b1110010100110100 H
b1110010100110100 c
b0 8
b0 >
b0 C
b0 O
b1011110111000000 J
b1011110111000000 Z
b1011110111000000 b
b11 6
b11 <
b11 E
b11 [
b10 7
b10 =
b10 D
b10 U
b101 ?
1'
#134
0'
#135
b1110010100110100 I
b1110010100110100 `
b1110010100110100 a
b1110010100110100 L
b1110010100110100 V
b1110010100110100 \
b1110010100110100 !
b1110010100110100 5
b1110010100110100 F
b1110010100110100 M
b1110010100110100 W
b1110010100110100 ]
b1111111110101011 K
b1111111110101011 T
b1111111110101011 Y
b1111111110101011 ^
b1110010011011111 H
b1110010011011111 c
b1111111110101011 J
b1111111110101011 Z
b1111111110101011 b
b11 8
b11 >
b11 C
b11 O
b0 7
b0 =
b0 D
b0 U
b110 ?
1'
#136
0'
#137
b1110010011011111 I
b1110010011011111 `
b1110010011011111 a
b1110010011011111 L
b1110010011011111 V
b1110010011011111 \
b1110010011011111 !
b1110010011011111 5
b1110010011011111 F
b1110010011011111 M
b1110010011011111 W
b1110010011011111 ]
0;
b1100100110111110 H
b1100100110111110 c
b1110010011011111 J
b1110010011011111 Z
b1110010011011111 b
b10 7
b10 =
b10 D
b10 U
b111 ?
1'
#138
0'
